/Users/eli/Dropbox/DOCENCIA/PA/2020-21/Sesiones Laboratorio/L03-Abstraccion y Modularizacion/L03-codigo/mail-system/src/main/java/pa/MailItem.java
/Users/eli/Dropbox/DOCENCIA/PA/2020-21/Sesiones Laboratorio/L03-Abstraccion y Modularizacion/L03-codigo/mail-system/src/main/java/pa/MailClient.java
/Users/eli/Dropbox/DOCENCIA/PA/2020-21/Sesiones Laboratorio/L03-Abstraccion y Modularizacion/L03-codigo/mail-system/src/main/java/pa/DemoMail.java
/Users/eli/Dropbox/DOCENCIA/PA/2020-21/Sesiones Laboratorio/L03-Abstraccion y Modularizacion/L03-codigo/mail-system/src/main/java/pa/MailServer.java
